{
	"id": "AI",
	"passengerConfig": {
		"minTravellers": 1,
		"maxTravellers": 9,
		"maxChildrenPerGuardian": 8,
		"maxInfantsPerGuardian": 1,
		"maxChildrenAndInfantsPerGuardian": 9,
		"travellerTypes": [
			{
				"type": "adult",
				"min": 0,
				"max": 9,
				"default": 1,
				"countAsTraveller": true,
				"canAccompanyMinors": true,
				"countAsAdult": true,
				"countAsChild": false,
				"countAsInfant": false,
				"isConcessionary": false
			},
			{
				"type": "child",
				"min": 0,
				"max": 8,
				"default": 0,
				"countAsTraveller": true,
				"canAccompanyMinors": false,
				"countAsAdult": false,
				"countAsChild": true,
				"countAsInfant": false,
				"isConcessionary": false
			},
			{
				"type": "infant",
				"min": 0,
				"max": 9,
				"default": 0,
				"countAsTraveller": false,
				"canAccompanyMinors": false,
				"countAsAdult": false,
				"countAsChild": false,
				"countAsInfant": true,
				"isConcessionary": false
			},
			{
				"type": "youth",
				"min": 1,
				"max": 9,
				"default": 0,
				"countAsTraveller": true,
				"canAccompanyMinors": true,
				"countAsAdult": true,
				"countAsChild": false,
				"countAsInfant": false,
				"isConcessionary": true
			},
			{
				"type": "student",
				"min": 1,
				"max": 9,
				"default": 0,
				"countAsTraveller": true,
				"canAccompanyMinors": true,
				"countAsAdult": true,
				"countAsChild": false,
				"countAsInfant": false,
				"isConcessionary": true
			},
			{
				"type": "senior-citizen",
				"min": 1,
				"max": 9,
				"default": 0,
				"countAsTraveller": true,
				"canAccompanyMinors": true,
				"countAsAdult": true,
				"countAsChild": false,
				"countAsInfant": false,
				"isConcessionary": true
			}
		],
		"infantSelectionPromptText": "If your infant turns two prior to date of return, please enter your infant as a child.",
		"infantSelectionPromptBasedOn": "departure"
	},
	"travelConfig": {
		"departureDestinationDisplayFormat": [
			"airportName",
			"airportCode",
			"city",
			"country"
		],
		"periodToMinDepartDate": "PT2H",
		"periodToMaxDepartDate": "P330D",
		"periodToMaxDepartDateRoundToMonthEnd": "false",
		"travelMaximumDateWindow": "P7D",
		"travelDurationToDefaultDepartDate": "/PT2H",
		"preferredDepartureReturnTime": "P12H",
		"travelRequestedDateWindow": {
			"availabilityLed": "P0D",
			"journeyTariffLed": "P0D",
			"datePriceLed": "P3D",
			"datePriceLed.journeyTariff": "P3D",
			"datePriceLedOneWay": "P7D"
		}
	},
	"fareConditionConfig": {
		"serviceFareClassType": [
			"Economy",
			"Business",
			"First",
			"PremiumEconomy",
			"PremiumBusiness"
		],
		"defaultServiceClass": "Economy",
		"maxNoOfServiceClassSelections": 3,
		"searchOptions": [
			"non-stop",
			"connecting",
			"direct"
		],
		"defaultJourneyTypes": [
			"one-way",
			"round-trip",
			"multi-city"
		],
		"maxMultiCityPairs": 6
	},
	"dateConfig": {
		"departureReturnDateFormat": "dd/mm/yy"
	},
	"travelRoutesConfig": {
		"routes": [
			{
				"Airport.AGR": [
					"Airport.AGX",
					"Airport.AJL",
					"Airport.AMD"
				]
			},
			{
				"Airport.BOM": [
					"Airport.CAI",
					"Airport.DEL",
					"Airport.LHR"
				]
			},
			{
				"Airport.DEL": [
					"Airport.DEN",
					"Airport.BAH",
					"Airport.LHR"
				]
			},
			{
				"City.AGR": [
					"City.AGX",
					"City.AJL",
					"City.AMD"
				]
			},
			{
				"City.BOM": [
					"City.CAI",
					"City.DEL",
					"City.LON"
				]
			},
			{
				"City.DEL": [
					"City.DEN",
					"City.BAH",
					"City.LON"
				]
			}
		]
	}
}